3990512: precision@k:0.400 recall:0.111
714612: precision@k:0.300 recall:0.100
2528767: precision@k:0.300 recall:0.130
821387: precision@k:0.000 recall:0.000
1880028: precision@k:0.900 recall:0.290
4448097: precision@k:0.600 recall:0.167
1287437: precision@k:0.300 recall:0.091
2956570: precision@k:0.700 recall:0.241
1351675: precision@k:0.300 recall:0.097
1783010: precision@k:0.100 recall:0.056
2799913: precision@k:0.400 recall:0.108
2142044: precision@k:0.800 recall:0.348
707303: precision@k:0.400 recall:0.160
676028: precision@k:0.400 recall:0.129
2484180: precision@k:0.300 recall:0.083
2307305: precision@k:0.200 recall:0.065
2814599: precision@k:0.500 recall:0.217
3369088: precision@k:0.400 recall:0.091
1702151: precision@k:0.200 recall:0.059
851124: precision@k:0.300 recall:0.100
3698636: precision@k:0.200 recall:0.050
1844896: precision@k:0.500 recall:0.167
2290758: precision@k:0.100 recall:0.027
143833: precision@k:0.300 recall:0.115
3910925: precision@k:0.700 recall:0.175
2643507: precision@k:0.400 recall:0.118
1502604: precision@k:0.400 recall:0.118
4283542: precision@k:0.600 recall:0.207
3554263: precision@k:0.100 recall:0.029
3313308: precision@k:0.000 recall:0.000
4357460: precision@k:0.300 recall:0.068
2582920: precision@k:1.000 recall:0.370
4462511: precision@k:0.100 recall:0.040
2795030: precision@k:0.200 recall:0.051
312215: precision@k:0.800 recall:0.276
3363149: precision@k:0.300 recall:0.107
1944018: precision@k:0.300 recall:0.061
788976: precision@k:0.100 recall:0.022
4385316: precision@k:0.200 recall:0.057
551239: precision@k:0.500 recall:0.172
3499881: precision@k:0.400 recall:0.095
4311093: precision@k:0.800 recall:0.267
4256593: precision@k:0.700 recall:0.304
1017690: precision@k:0.300 recall:0.111
667488: precision@k:0.800 recall:0.333
3507491: precision@k:0.400 recall:0.118
2634143: precision@k:0.100 recall:0.033
3396066: precision@k:0.400 recall:0.114
2892478: precision@k:0.300 recall:0.115
3155314: precision@k:0.000 recall:0.000
3990512: precision@k:0.400 recall:0.111
714612: precision@k:0.300 recall:0.100
2528767: precision@k:0.300 recall:0.130
821387: precision@k:0.000 recall:0.000
1880028: precision@k:0.900 recall:0.290
4448097: precision@k:0.600 recall:0.167
1287437: precision@k:0.300 recall:0.091
2956570: precision@k:0.700 recall:0.241
1351675: precision@k:0.300 recall:0.097
1783010: precision@k:0.100 recall:0.056
2799913: precision@k:0.400 recall:0.108
2142044: precision@k:0.800 recall:0.348
707303: precision@k:0.400 recall:0.160
676028: precision@k:0.400 recall:0.129
2484180: precision@k:0.300 recall:0.083
2307305: precision@k:0.200 recall:0.065
2814599: precision@k:0.500 recall:0.217
3369088: precision@k:0.400 recall:0.091
1702151: precision@k:0.200 recall:0.059
851124: precision@k:0.300 recall:0.100
3698636: precision@k:0.200 recall:0.050
1844896: precision@k:0.500 recall:0.167
2290758: precision@k:0.100 recall:0.027
143833: precision@k:0.300 recall:0.115
3910925: precision@k:0.700 recall:0.175
2643507: precision@k:0.400 recall:0.118
1502604: precision@k:0.400 recall:0.118
4283542: precision@k:0.600 recall:0.207
3554263: precision@k:0.100 recall:0.029
3313308: precision@k:0.000 recall:0.000
4357460: precision@k:0.300 recall:0.068
2582920: precision@k:1.000 recall:0.370
4462511: precision@k:0.100 recall:0.040
2795030: precision@k:0.200 recall:0.051
312215: precision@k:0.800 recall:0.276
3363149: precision@k:0.300 recall:0.107
1944018: precision@k:0.300 recall:0.061
788976: precision@k:0.100 recall:0.022
4385316: precision@k:0.200 recall:0.057
551239: precision@k:0.500 recall:0.172
3499881: precision@k:0.400 recall:0.095
4311093: precision@k:0.800 recall:0.267
4256593: precision@k:0.700 recall:0.304
1017690: precision@k:0.300 recall:0.111
667488: precision@k:0.800 recall:0.333
3507491: precision@k:0.400 recall:0.118
2634143: precision@k:0.100 recall:0.033
3396066: precision@k:0.400 recall:0.114
2892478: precision@k:0.300 recall:0.115
3155314: precision@k:0.000 recall:0.000
3990512: precision@k:0.400 recall:0.111
714612: precision@k:0.300 recall:0.100
2528767: precision@k:0.300 recall:0.130
821387: precision@k:0.000 recall:0.000
1880028: precision@k:0.900 recall:0.290
4448097: precision@k:0.600 recall:0.167
1287437: precision@k:0.300 recall:0.091
2956570: precision@k:0.700 recall:0.241
1351675: precision@k:0.300 recall:0.097
1783010: precision@k:0.100 recall:0.056
2799913: precision@k:0.400 recall:0.108
2142044: precision@k:0.800 recall:0.348
707303: precision@k:0.400 recall:0.160
676028: precision@k:0.400 recall:0.129
2484180: precision@k:0.300 recall:0.083
2307305: precision@k:0.200 recall:0.065
2814599: precision@k:0.500 recall:0.217
3369088: precision@k:0.400 recall:0.091
1702151: precision@k:0.200 recall:0.059
851124: precision@k:0.300 recall:0.100
3698636: precision@k:0.200 recall:0.050
1844896: precision@k:0.500 recall:0.167
2290758: precision@k:0.100 recall:0.027
143833: precision@k:0.300 recall:0.115
3910925: precision@k:0.700 recall:0.175
2643507: precision@k:0.400 recall:0.118
1502604: precision@k:0.400 recall:0.118
4283542: precision@k:0.600 recall:0.207
3554263: precision@k:0.100 recall:0.029
3313308: precision@k:0.000 recall:0.000
4357460: precision@k:0.300 recall:0.068
2582920: precision@k:1.000 recall:0.370
4462511: precision@k:0.100 recall:0.040
2795030: precision@k:0.200 recall:0.051
312215: precision@k:0.800 recall:0.276
3363149: precision@k:0.300 recall:0.107
1944018: precision@k:0.300 recall:0.061
788976: precision@k:0.100 recall:0.022
4385316: precision@k:0.200 recall:0.057
551239: precision@k:0.500 recall:0.172
3499881: precision@k:0.400 recall:0.095
4311093: precision@k:0.800 recall:0.267
4256593: precision@k:0.700 recall:0.304
1017690: precision@k:0.300 recall:0.111
667488: precision@k:0.800 recall:0.333
3507491: precision@k:0.400 recall:0.118
2634143: precision@k:0.100 recall:0.033
3396066: precision@k:0.400 recall:0.114
2892478: precision@k:0.300 recall:0.115
3155314: precision@k:0.000 recall:0.000
3990512: precision@k:0.400 recall:0.111
714612: precision@k:0.300 recall:0.100
2528767: precision@k:0.300 recall:0.130
821387: precision@k:0.000 recall:0.000
1880028: precision@k:0.900 recall:0.290
4448097: precision@k:0.600 recall:0.167
1287437: precision@k:0.300 recall:0.091
2956570: precision@k:0.700 recall:0.241
1351675: precision@k:0.300 recall:0.097
1783010: precision@k:0.100 recall:0.056
2799913: precision@k:0.400 recall:0.108
2142044: precision@k:0.800 recall:0.348
707303: precision@k:0.400 recall:0.160
676028: precision@k:0.400 recall:0.129
2484180: precision@k:0.300 recall:0.083
2307305: precision@k:0.200 recall:0.065
2814599: precision@k:0.500 recall:0.217
3369088: precision@k:0.400 recall:0.091
1702151: precision@k:0.200 recall:0.059
851124: precision@k:0.300 recall:0.100
3698636: precision@k:0.200 recall:0.050
1844896: precision@k:0.500 recall:0.167
2290758: precision@k:0.100 recall:0.027
143833: precision@k:0.300 recall:0.115
3910925: precision@k:0.700 recall:0.175
2643507: precision@k:0.400 recall:0.118
1502604: precision@k:0.400 recall:0.118
4283542: precision@k:0.600 recall:0.207
3554263: precision@k:0.100 recall:0.029
3313308: precision@k:0.000 recall:0.000
4357460: precision@k:0.300 recall:0.068
2582920: precision@k:1.000 recall:0.370
4462511: precision@k:0.100 recall:0.040
2795030: precision@k:0.200 recall:0.051
312215: precision@k:0.800 recall:0.276
3363149: precision@k:0.300 recall:0.107
1944018: precision@k:0.300 recall:0.061
788976: precision@k:0.100 recall:0.022
4385316: precision@k:0.200 recall:0.057
551239: precision@k:0.500 recall:0.172
3499881: precision@k:0.400 recall:0.095
4311093: precision@k:0.800 recall:0.267
4256593: precision@k:0.700 recall:0.304
1017690: precision@k:0.300 recall:0.111
667488: precision@k:0.800 recall:0.333
3507491: precision@k:0.400 recall:0.118
2634143: precision@k:0.100 recall:0.033
3396066: precision@k:0.400 recall:0.114
2892478: precision@k:0.300 recall:0.115
3155314: precision@k:0.000 recall:0.000

MRR:0.616 MAP:0.087
